L-S  Eta  Phi  Mul  Lay  Eff
0    0    1    0    1    0
1    1    1    1    4    0
1    2    1    0    4    0.5
1    3    2    1    3    0
1    1    3    1    4    0
1    0    3    1    4    0.5
1    1    3    0    4    0
1    1    3    0    2    0.5
1    0    3    0    2    0.5
1    1    4    1    2    0
1    0    4    1    2    0
1    3    4    1    4    0.5
0    2    5    1    4    0.5
0    0    5    1    3    0
1    1    6    1    2    0
1    0    6    1    4    0.6
0    3    7    0    1    0
0    2    7    1    1    0.5
1    1    7    1    1    0
1    0    7    1    2    0
1    1    7    0    2    0
0    3    8    1    4    0
1    1    8    1    4    0
1    1    8    0    4    0
